{
  "current_page": 1,
  "data": [
    {
      "id": "1211600",
      "scale1": "45500",
      "scale2": "182250",
      "vehicle": "3036ӨМЭ",
      "chingeleg1": "CICU3574415",
      "chingeleg2": "CICU3580296",
      "chingeleg3": "CICU3577461",
      "chingeleg4": "CICU3580470",
      "driver": "Хүрэлхуяг.И",
      "transforterName": "АЗЫН ХИШИГ ДЭЛГЭРЭХ ХХК"
    },
    {
      "id": "1211599",
      "scale1": "44350",
      "scale2": "183000",
      "vehicle": "7037УЕН",
      "chingeleg1": "CICU4509100",
      "chingeleg2": "CICU4516500",
      "chingeleg3": "CICU4508953",
      "chingeleg4": "CICU4508866",
      "driver": "Ариунболд.Г",
      "transforterName": "БАЯН ӨГИЙ ЗЭГСТ ХХК"
    },
    {
      "id": "1211598",
      "scale1": "37550",
      "scale2": "181300",
      "vehicle": "6316УБТ",
      "chingeleg1": "CICU4399019",
      "chingeleg2": "CICU4397757",
      "chingeleg3": "CICU4397720",
      "chingeleg4": "CICU4397320",
      "driver": "Түвшинтөгс.У",
      "transforterName": "БАЯН ӨГИЙ ЗЭГСТ ХХК"
    },
    {
      "id": "1211597",
      "scale1": "44550",
      "scale2": "183350",
      "vehicle": "2699УНО",
      "chingeleg1": "CICU4400357",
      "chingeleg2": "CICU4400850",
      "chingeleg3": "CICU4400362",
      "chingeleg4": "CICU4400125",
      "driver": "Алтангэрэл.Р",
      "transforterName": "БАЯН ӨГИЙ ЗЭГСТ ХХК"
    },
    {
      "id": "1211596",
      "scale1": "41250",
      "scale2": "183950",
      "vehicle": "7481ӨМЭ",
      "chingeleg1": "",
      "chingeleg2": "",
      "chingeleg3": "",
      "chingeleg4": "",
      "driver": "Аахүрэл.Ц",
      "transforterName": "ДАГАЛАЙ ШАРГА НАЯН НАЙМ ТРАНС ХХК"
    },
    {
      "id": "1211595",
      "scale1": "46200",
      "scale2": "182050",
      "vehicle": "4538ӨМҮ",
      "chingeleg1": "TLSY1803406",
      "chingeleg2": "XJSY1896835",
      "chingeleg3": "CICU1436968",
      "chingeleg4": "CICU1438600",
      "driver": "Цэнд.Э",
      "transforterName": "АЗЫН ХИШИГ ДЭЛГЭРЭХ ХХК"
    },
    {
      "id": "1211594",
      "scale1": "41150",
      "scale2": "183000",
      "vehicle": "7391ӨМЭ",
      "chingeleg1": "",
      "chingeleg2": "",
      "chingeleg3": "",
      "chingeleg4": "",
      "driver": "Батчулуун.Б",
      "transforterName": "ДАГАЛАЙ ШАРГА НАЯН НАЙМ ТРАНС ХХК"
    },
    {
      "id": "1211593",
      "scale1": "45900",
      "scale2": "182200",
      "vehicle": "4352УНА",
      "chingeleg1": "CICU4400260",
      "chingeleg2": "CICU4397464",
      "chingeleg3": "CICU4399277",
      "chingeleg4": "CICU4399298",
      "driver": "Батбаяр.Д",
      "transforterName": "СОШИАЛ ФИНАНС ХХК"
    },
    {
      "id": "1211592",
      "scale1": "37750",
      "scale2": "180600",
      "vehicle": "8461УБЕ",
      "chingeleg1": "CICU4398780",
      "chingeleg2": "CICU4400254",
      "chingeleg3": "CICU4394830",
      "chingeleg4": "CICU4397660",
      "driver": "Амарсанаа.Д",
      "transforterName": "БАЯН ӨГИЙ ЗЭГСТ ХХК"
    },
    {
      "id": "1211591",
      "scale1": "46400",
      "scale2": "183350",
      "vehicle": "2047УЕВ",
      "chingeleg1": "CICU3580104",
      "chingeleg2": "CICU3576260",
      "chingeleg3": "CICU3577543",
      "chingeleg4": "CICU3581081",
      "driver": "Амарбаясгалан.Б",
      "transforterName": "БАЯНХАНГАЙН ЗАМ ХХК"
    },
    {
      "id": "1211590",
      "scale1": "21950",
      "scale2": "94250",
      "vehicle": "3534УАХ",
      "chingeleg1": "",
      "chingeleg2": "",
      "chingeleg3": "",
      "chingeleg4": "",
      "driver": "Рагчаасүрэн.Б",
      "transforterName": "ПРАЙД ТРАНС ХХК"
    },
    {
      "id": "1211589",
      "scale1": "44150",
      "scale2": "182500",
      "vehicle": "3623ӨМЭ",
      "chingeleg1": "",
      "chingeleg2": "",
      "chingeleg3": "",
      "chingeleg4": "",
      "driver": "Бархүү.Ч",
      "transforterName": "ГОВЬ ХАРМАГТАЙ ХХК"
    },
    {
      "id": "1211588",
      "scale1": "45450",
      "scale2": "183700",
      "vehicle": "4256ӨМЭ",
      "chingeleg1": "CICU4865462",
      "chingeleg2": "CICU4865499",
      "chingeleg3": "CICU4865483",
      "chingeleg4": "CICU4864846",
      "driver": "Дэлгэрсайхан.Т",
      "transforterName": "БАЯЛАГ ЛОЖИСТИК ТРАНС ХХК"
    },
    {
      "id": "1211587",
      "scale1": "42800",
      "scale2": "179750",
      "vehicle": "1420УБЗ",
      "chingeleg1": "",
      "chingeleg2": "",
      "chingeleg3": "",
      "chingeleg4": "",
      "driver": "Энхбаяр.Э",
      "transforterName": "ЦАХИЛАХ ӨРТӨӨ ХХК"
    },
    {
      "id": "1211586",
      "scale1": "26350",
      "scale2": "88050",
      "vehicle": "3811УАМ",
      "chingeleg1": "CICU3584558",
      "chingeleg2": "CICU3609363",
      "chingeleg3": "",
      "chingeleg4": "",
      "driver": "Сүхбат.Д",
      "transforterName": "ТИ ТИ СИ ЭНД ТИ ХХК"
    },
    {
      "id": "1211585",
      "scale1": "46250",
      "scale2": "181100",
      "vehicle": "4260ӨМЭ",
      "chingeleg1": "CPOC1735181",
      "chingeleg2": "CPOC1736568",
      "chingeleg3": "CPOC1734380",
      "chingeleg4": "CPOC1735577",
      "driver": "Алтангэрэл.З",
      "transforterName": "БАЯЛАГ ЛОЖИСТИК ТРАНС ХХК"
    },
    {
      "id": "1211584",
      "scale1": "45900",
      "scale2": "183550",
      "vehicle": "2831УББ",
      "chingeleg1": "",
      "chingeleg2": "",
      "chingeleg3": "",
      "chingeleg4": "",
      "driver": "Дашдорж.Б",
      "transforterName": "УРЧУУЛ-ОТОГ ХХК"
    },
    {
      "id": "1211583",
      "scale1": "41650",
      "scale2": "176250",
      "vehicle": "8571УБГ",
      "chingeleg1": "CICU4392924",
      "chingeleg2": "CICU4145673",
      "chingeleg3": "CICU3890769",
      "chingeleg4": "CICU4399580",
      "driver": "Ганзориг.Э",
      "transforterName": "ЦАХИЛАХ ӨРТӨӨ ХХК"
    },
    {
      "id": "1211582",
      "scale1": "38700",
      "scale2": "180600",
      "vehicle": "3826УББ",
      "chingeleg1": "CICU4147104",
      "chingeleg2": "CICU3888669",
      "chingeleg3": "CICU4153956",
      "chingeleg4": "CICU4149534",
      "driver": "Гансүх.Б",
      "transforterName": "БАЯН ӨГИЙ ЗЭГСТ ХХК"
    },
    {
      "id": "1211581",
      "scale1": "42450",
      "scale2": "174150",
      "vehicle": "8751УБЦ",
      "chingeleg1": "CICU8868480",
      "chingeleg2": "CICU8886355",
      "chingeleg3": "CICU8870066",
      "chingeleg4": "CICU1388860",
      "driver": "Баярбаатар.М",
      "transforterName": "ЦАХИЛАХ ӨРТӨӨ ХХК"
    }
  ],
  "first_page_url": "http://192.168.9.196:8000/api/all?page=1",
  "from": 1,
  "last_page": 30524,
  "last_page_url": "http://192.168.9.196:8000/api/all?page=30524",
  "links": [
    {
      "url": null,
      "label": "&laquo; Previous",
      "active": false
    },
    {
      "url": "http://192.168.9.196:8000/api/all?page=1",
      "label": "1",
      "active": true
    },
    {
      "url": "http://192.168.9.196:8000/api/all?page=2",
      "label": "2",
      "active": false
    },
    {
      "url": "http://192.168.9.196:8000/api/all?page=3",
      "label": "3",
      "active": false
    },
    {
      "url": "http://192.168.9.196:8000/api/all?page=4",
      "label": "4",
      "active": false
    },
    {
      "url": "http://192.168.9.196:8000/api/all?page=5",
      "label": "5",
      "active": false
    },
    {
      "url": "http://192.168.9.196:8000/api/all?page=6",
      "label": "6",
      "active": false
    },
    {
      "url": "http://192.168.9.196:8000/api/all?page=7",
      "label": "7",
      "active": false
    },
    {
      "url": "http://192.168.9.196:8000/api/all?page=8",
      "label": "8",
      "active": false
    },
    {
      "url": "http://192.168.9.196:8000/api/all?page=9",
      "label": "9",
      "active": false
    },
    {
      "url": "http://192.168.9.196:8000/api/all?page=10",
      "label": "10",
      "active": false
    },
    {
      "url": null,
      "label": "...",
      "active": false
    },
    {
      "url": "http://192.168.9.196:8000/api/all?page=30523",
      "label": "30523",
      "active": false
    },
    {
      "url": "http://192.168.9.196:8000/api/all?page=30524",
      "label": "30524",
      "active": false
    },
    {
      "url": "http://192.168.9.196:8000/api/all?page=2",
      "label": "Next &raquo;",
      "active": false
    }
  ],
  "next_page_url": "http://192.168.9.196:8000/api/all?page=2",
  "path": "http://192.168.9.196:8000/api/all",
  "per_page": 20,
  "prev_page_url": null,
  "to": 20,
  "total": 610467
}
